^E:\OKAPP\KV\PARKINGSENSORS\PARKINGSENSORS\DEBUG\CRTANJE_QUICKSTART.OBJ
/OUT:"E:\OKAPP\KV\PARKINGSENSORS\DEBUG\PARKINGSENSORS.EXE" /INCREMENTAL /NOLOGO /LIBPATH:E:\OKAPP\KV\PARKINGSENSORS\DEPENDENCIES\GLUT\LIB FREEGLUT.LIB KERNEL32.LIB USER32.LIB GDI32.LIB WINSPOOL.LIB COMDLG32.LIB ADVAPI32.LIB SHELL32.LIB OLE32.LIB OLEAUT32.LIB UUID.LIB ODBC32.LIB ODBCCP32.LIB KERNEL32.LIB USER32.LIB GDI32.LIB WINSPOOL.LIB COMDLG32.LIB ADVAPI32.LIB SHELL32.LIB OLE32.LIB OLEAUT32.LIB UUID.LIB ODBC32.LIB ODBCCP32.LIB /MANIFEST /MANIFESTUAC:"level='asInvoker' uiAccess='false'" /manifest:embed /DEBUG:FASTLINK /PDB:"E:\OKAPP\KV\PARKINGSENSORS\DEBUG\PARKINGSENSORS.PDB" /TLBID:1 /DYNAMICBASE /NXCOMPAT /IMPLIB:"E:\OKAPP\KV\PARKINGSENSORS\DEBUG\PARKINGSENSORS.LIB" /MACHINE:X86 DEBUG\CRTANJE_QUICKSTART.OBJ
^D:\ONEDRIVE\FAKS\POSAO\OSIGURANJE KAKVOĆE AUTOMOBILSKE PROGRAMSKE PODRŠKE\WINDOWS RJEŠENJE ZA KV\LUKA KRULJAC KV - OKAPP\KV\PARKINGSENSORS\PARKINGSENSORS\DEBUG\CRTANJE_QUICKSTART.OBJ
/OUT:"D:\ONEDRIVE\FAKS\POSAO\OSIGURANJE KAKVOĆE AUTOMOBILSKE PROGRAMSKE PODRŠKE\WINDOWS RJEŠENJE ZA KV\LUKA KRULJAC KV - OKAPP\KV\PARKINGSENSORS\DEBUG\PARKINGSENSORS.EXE" /INCREMENTAL /NOLOGO /LIBPATH:"D:\ONEDRIVE\FAKS\POSAO\OSIGURANJE KAKVOĆE AUTOMOBILSKE PROGRAMSKE PODRŠKE\WINDOWS RJEŠENJE ZA KV\LUKA KRULJAC KV - OKAPP\KV\PARKINGSENSORS\DEPENDENCIES\GLUT\LIB" FREEGLUT.LIB KERNEL32.LIB USER32.LIB GDI32.LIB WINSPOOL.LIB COMDLG32.LIB ADVAPI32.LIB SHELL32.LIB OLE32.LIB OLEAUT32.LIB UUID.LIB ODBC32.LIB ODBCCP32.LIB KERNEL32.LIB USER32.LIB GDI32.LIB WINSPOOL.LIB COMDLG32.LIB ADVAPI32.LIB SHELL32.LIB OLE32.LIB OLEAUT32.LIB UUID.LIB ODBC32.LIB ODBCCP32.LIB /MANIFEST /MANIFESTUAC:"level='asInvoker' uiAccess='false'" /manifest:embed /DEBUG:FASTLINK /PDB:"D:\ONEDRIVE\FAKS\POSAO\OSIGURANJE KAKVOĆE AUTOMOBILSKE PROGRAMSKE PODRŠKE\WINDOWS RJEŠENJE ZA KV\LUKA KRULJAC KV - OKAPP\KV\PARKINGSENSORS\DEBUG\PARKINGSENSORS.PDB" /TLBID:1 /DYNAMICBASE /NXCOMPAT /IMPLIB:"D:\ONEDRIVE\FAKS\POSAO\OSIGURANJE KAKVOĆE AUTOMOBILSKE PROGRAMSKE PODRŠKE\WINDOWS RJEŠENJE ZA KV\LUKA KRULJAC KV - OKAPP\KV\PARKINGSENSORS\DEBUG\PARKINGSENSORS.LIB" /MACHINE:X86 DEBUG\CRTANJE_QUICKSTART.OBJ
^C:\USERS\KORISNIK\DESKTOP\PARKINGSENSORSTEMPLATE\PARKINGSENSORS\DEBUG\CRTANJE_QUICKSTART.OBJ
/OUT:"C:\USERS\KORISNIK\DESKTOP\PARKINGSENSORSTEMPLATE\DEBUG\PARKINGSENSORS.EXE" /INCREMENTAL /NOLOGO /LIBPATH:C:\USERS\KORISNIK\DESKTOP\PARKINGSENSORSTEMPLATE\DEPENDENCIES\GLUT\LIB FREEGLUT.LIB KERNEL32.LIB USER32.LIB GDI32.LIB WINSPOOL.LIB COMDLG32.LIB ADVAPI32.LIB SHELL32.LIB OLE32.LIB OLEAUT32.LIB UUID.LIB ODBC32.LIB ODBCCP32.LIB KERNEL32.LIB USER32.LIB GDI32.LIB WINSPOOL.LIB COMDLG32.LIB ADVAPI32.LIB SHELL32.LIB OLE32.LIB OLEAUT32.LIB UUID.LIB ODBC32.LIB ODBCCP32.LIB /MANIFEST /MANIFESTUAC:"level='asInvoker' uiAccess='false'" /manifest:embed /DEBUG:FASTLINK /PDB:"C:\USERS\KORISNIK\DESKTOP\PARKINGSENSORSTEMPLATE\DEBUG\PARKINGSENSORS.PDB" /TLBID:1 /DYNAMICBASE /NXCOMPAT /IMPLIB:"C:\USERS\KORISNIK\DESKTOP\PARKINGSENSORSTEMPLATE\DEBUG\PARKINGSENSORS.LIB" /MACHINE:X86 DEBUG\CRTANJE_QUICKSTART.OBJ
^C:\USERS\KORISNIK\DESKTOP\PARKINGSENSORSWINDOWS\PARKINGSENSORS\DEBUG\CRTANJE_QUICKSTART.OBJ
/OUT:"C:\USERS\KORISNIK\DESKTOP\PARKINGSENSORSWINDOWS\DEBUG\PARKINGSENSORS.EXE" /INCREMENTAL /NOLOGO /LIBPATH:C:\USERS\KORISNIK\DESKTOP\PARKINGSENSORSWINDOWS\DEPENDENCIES\GLUT\LIB FREEGLUT.LIB KERNEL32.LIB USER32.LIB GDI32.LIB WINSPOOL.LIB COMDLG32.LIB ADVAPI32.LIB SHELL32.LIB OLE32.LIB OLEAUT32.LIB UUID.LIB ODBC32.LIB ODBCCP32.LIB KERNEL32.LIB USER32.LIB GDI32.LIB WINSPOOL.LIB COMDLG32.LIB ADVAPI32.LIB SHELL32.LIB OLE32.LIB OLEAUT32.LIB UUID.LIB ODBC32.LIB ODBCCP32.LIB /MANIFEST /MANIFESTUAC:"level='asInvoker' uiAccess='false'" /manifest:embed /DEBUG:FASTLINK /PDB:"C:\USERS\KORISNIK\DESKTOP\PARKINGSENSORSWINDOWS\DEBUG\PARKINGSENSORS.PDB" /TLBID:1 /DYNAMICBASE /NXCOMPAT /IMPLIB:"C:\USERS\KORISNIK\DESKTOP\PARKINGSENSORSWINDOWS\DEBUG\PARKINGSENSORS.LIB" /MACHINE:X86 DEBUG\CRTANJE_QUICKSTART.OBJ
^D:\DAVID\FAKS\DIPLOMSKI_AUTOMOBILSKO\I_SEMESTAR\OSIGURANJE-KAKVOCE-AUTOMOBILSKE-PROGRAMSKE-PODRŠKE\PARKINGSENSORSWINDOWS\PARKINGSENSORS\DEBUG\CRTANJE_QUICKSTART.OBJ
/OUT:"D:\DAVID\FAKS\DIPLOMSKI_AUTOMOBILSKO\I_SEMESTAR\OSIGURANJE-KAKVOCE-AUTOMOBILSKE-PROGRAMSKE-PODRŠKE\PARKINGSENSORSWINDOWS\DEBUG\PARKINGSENSORS.EXE" /INCREMENTAL /ILK:"DEBUG\PARKINGSENSORS.ILK" /NOLOGO /LIBPATH:"D:\DAVID\FAKS\DIPLOMSKI_AUTOMOBILSKO\I_SEMESTAR\OSIGURANJE-KAKVOCE-AUTOMOBILSKE-PROGRAMSKE-PODRŠKE\PARKINGSENSORSWINDOWS\DEPENDENCIES\GLUT\LIB" FREEGLUT.LIB KERNEL32.LIB USER32.LIB GDI32.LIB WINSPOOL.LIB COMDLG32.LIB ADVAPI32.LIB SHELL32.LIB OLE32.LIB OLEAUT32.LIB UUID.LIB ODBC32.LIB ODBCCP32.LIB KERNEL32.LIB USER32.LIB GDI32.LIB WINSPOOL.LIB COMDLG32.LIB ADVAPI32.LIB SHELL32.LIB OLE32.LIB OLEAUT32.LIB UUID.LIB ODBC32.LIB ODBCCP32.LIB /MANIFEST /MANIFESTUAC:"level='asInvoker' uiAccess='false'" /manifest:embed /DEBUG:FULL /PDB:"D:\DAVID\FAKS\DIPLOMSKI_AUTOMOBILSKO\I_SEMESTAR\OSIGURANJE-KAKVOCE-AUTOMOBILSKE-PROGRAMSKE-PODRŠKE\PARKINGSENSORSWINDOWS\DEBUG\PARKINGSENSORS.PDB" /TLBID:1 /DYNAMICBASE /NXCOMPAT /IMPLIB:"D:\DAVID\FAKS\DIPLOMSKI_AUTOMOBILSKO\I_SEMESTAR\OSIGURANJE-KAKVOCE-AUTOMOBILSKE-PROGRAMSKE-PODRŠKE\PARKINGSENSORSWINDOWS\DEBUG\PARKINGSENSORS.LIB" /MACHINE:X86 DEBUG\CRTANJE_QUICKSTART.OBJ
^D:\DAVID\FAKS\DIPLOMSKI_AUTOMOBILSKO\I_SEMESTAR\OSIGURANJE-KAKVOCE-AUTOMOBILSKE-PROGRAMSKE-PODRSKE\PARKINGSENSORSWINDOWS\PARKINGSENSORS\DEBUG\CRTANJE_QUICKSTART.OBJ
/OUT:"D:\DAVID\FAKS\DIPLOMSKI_AUTOMOBILSKO\I_SEMESTAR\OSIGURANJE-KAKVOCE-AUTOMOBILSKE-PROGRAMSKE-PODRSKE\PARKINGSENSORSWINDOWS\DEBUG\PARKINGSENSORS.EXE" /INCREMENTAL /ILK:"DEBUG\PARKINGSENSORS.ILK" /NOLOGO /LIBPATH:"D:\DAVID\FAKS\DIPLOMSKI_AUTOMOBILSKO\I_SEMESTAR\OSIGURANJE-KAKVOCE-AUTOMOBILSKE-PROGRAMSKE-PODRSKE\PARKINGSENSORSWINDOWS\DEPENDENCIES\GLUT\LIB" FREEGLUT.LIB KERNEL32.LIB USER32.LIB GDI32.LIB WINSPOOL.LIB COMDLG32.LIB ADVAPI32.LIB SHELL32.LIB OLE32.LIB OLEAUT32.LIB UUID.LIB ODBC32.LIB ODBCCP32.LIB WINMM.LIB KERNEL32.LIB USER32.LIB GDI32.LIB WINSPOOL.LIB COMDLG32.LIB ADVAPI32.LIB SHELL32.LIB OLE32.LIB OLEAUT32.LIB UUID.LIB ODBC32.LIB ODBCCP32.LIB /MANIFEST /MANIFESTUAC:"level='asInvoker' uiAccess='false'" /manifest:embed /DEBUG:FULL /PDB:"D:\DAVID\FAKS\DIPLOMSKI_AUTOMOBILSKO\I_SEMESTAR\OSIGURANJE-KAKVOCE-AUTOMOBILSKE-PROGRAMSKE-PODRSKE\PARKINGSENSORSWINDOWS\DEBUG\PARKINGSENSORS.PDB" /TLBID:1 /DYNAMICBASE /NXCOMPAT /IMPLIB:"D:\DAVID\FAKS\DIPLOMSKI_AUTOMOBILSKO\I_SEMESTAR\OSIGURANJE-KAKVOCE-AUTOMOBILSKE-PROGRAMSKE-PODRSKE\PARKINGSENSORSWINDOWS\DEBUG\PARKINGSENSORS.LIB" /MACHINE:X86 DEBUG\CRTANJE_QUICKSTART.OBJ
